{"help": "https://admin.opendata.dk/api/3/action/help_show?name=datastore_search", "success": true, "result": {"include_total": true, "resource_id": "b3eeb0ff-c8a8-4824-99d6-e0a3747c8b0d", "fields": [{"type": "int", "id": "_id"}, {"type": "int4", "id": "REPORT_ID"}, {"type": "timestamp", "id": "TIMESTAMP"}, {"type": "text", "id": "status"}, {"type": "int4", "id": "avgMeasuredTime"}, {"type": "int4", "id": "medianMeasuredTime"}, {"type": "int4", "id": "vehicleCount"}, {"type": "int4", "id": "avgSpeed"}], "records_format": "objects", "records": [{"_id":151,"REPORT_ID":210093,"TIMESTAMP":"2019-12-12T09:20:00","status":"OK","avgMeasuredTime":275,"medianMeasuredTime":275,"vehicleCount":0,"avgSpeed":29},{"_id":449,"REPORT_ID":178955,"TIMESTAMP":"2019-12-12T09:20:00","status":"OK","avgMeasuredTime":245,"medianMeasuredTime":245,"vehicleCount":4,"avgSpeed":21},{"_id":21,"REPORT_ID":187218,"TIMESTAMP":"2019-12-12T09:25:00","status":"OK","avgMeasuredTime":130,"medianMeasuredTime":130,"vehicleCount":1,"avgSpeed":17},{"_id":115,"REPORT_ID":190934,"TIMESTAMP":"2019-12-12T09:20:00","status":"OK","avgMeasuredTime":101,"medianMeasuredTime":101,"vehicleCount":11,"avgSpeed":49},{"_id":434,"REPORT_ID":158415,"TIMESTAMP":"2019-12-12T09:20:00","status":"OK","avgMeasuredTime":231,"medianMeasuredTime":231,"vehicleCount":2,"avgSpeed":44},{"_id":51,"REPORT_ID":190179,"TIMESTAMP":"2019-12-12T09:20:00","status":"OK","avgMeasuredTime":120,"medianMeasuredTime":120,"vehicleCount":0,"avgSpeed":23},{"_id":117,"REPORT_ID":187350,"TIMESTAMP":"2019-12-12T09:25:00","status":"OK","avgMeasuredTime":0,"medianMeasuredTime":0,"vehicleCount":0,"avgSpeed":0},{"_id":330,"REPORT_ID":203530,"TIMESTAMP":"2019-12-12T09:25:00","status":"OK","avgMeasuredTime":137,"medianMeasuredTime":137,"vehicleCount":2,"avgSpeed":29},{"_id":50,"REPORT_ID":206131,"TIMESTAMP":"2019-12-12T09:25:00","status":"OK","avgMeasuredTime":60,"medianMeasuredTime":60,"vehicleCount":1,"avgSpeed":30},{"_id":14,"REPORT_ID":182901,"TIMESTAMP":"2019-12-12T09:25:00","status":"OK","avgMeasuredTime":44,"medianMeasuredTime":44,"vehicleCount":7,"avgSpeed":57},{"_id":345,"REPORT_ID":195658,"TIMESTAMP":"2019-12-12T09:20:00","status":"OK","avgMeasuredTime":45,"medianMeasuredTime":45,"vehicleCount":7,"avgSpeed":51},{"_id":250,"REPORT_ID":179390,"TIMESTAMP":"2019-12-12T09:24:00","status":"OK","avgMeasuredTime":33,"medianMeasuredTime":33,"vehicleCount":0,"avgSpeed":70},{"_id":82,"REPORT_ID":187403,"TIMESTAMP":"2019-12-12T09:20:00","status":"OK","avgMeasuredTime":207,"medianMeasuredTime":207,"vehicleCount":1,"avgSpeed":33},{"_id":392,"REPORT_ID":185422,"TIMESTAMP":"2019-12-12T09:20:00","status":"OK","avgMeasuredTime":144,"medianMeasuredTime":144,"vehicleCount":0,"avgSpeed":17},{"_id":132,"REPORT_ID":179418,"TIMESTAMP":"2019-12-12T09:24:00","status":"OK","avgMeasuredTime":99,"medianMeasuredTime":99,"vehicleCount":0,"avgSpeed":31},{"_id":61,"REPORT_ID":158386,"TIMESTAMP":"2019-12-12T09:20:00","status":"OK","avgMeasuredTime":172,"medianMeasuredTime":172,"vehicleCount":8,"avgSpeed":60},{"_id":28,"REPORT_ID":193106,"TIMESTAMP":"2019-12-12T09:20:00","status":"OK","avgMeasuredTime":0,"medianMeasuredTime":0,"vehicleCount":0,"avgSpeed":0},{"_id":340,"REPORT_ID":185210,"TIMESTAMP":"2019-12-12T09:20:00","status":"OK","avgMeasuredTime":70,"medianMeasuredTime":70,"vehicleCount":3,"avgSpeed":38},{"_id":153,"REPORT_ID":188145,"TIMESTAMP":"2019-12-12T09:20:00","status":"OK","avgMeasuredTime":120,"medianMeasuredTime":120,"vehicleCount":1,"avgSpeed":21},{"_id":12,"REPORT_ID":190206,"TIMESTAMP":"2019-12-12T09:20:00","status":"OK","avgMeasuredTime":38,"medianMeasuredTime":38,"vehicleCount":0,"avgSpeed":47},{"_id":218,"REPORT_ID":182846,"TIMESTAMP":"2019-12-12T09:20:00","status":"OK","avgMeasuredTime":57,"medianMeasuredTime":57,"vehicleCount":6,"avgSpeed":41},{"_id":224,"REPORT_ID":192653,"TIMESTAMP":"2019-12-12T09:24:00","status":"OK","avgMeasuredTime":56,"medianMeasuredTime":56,"vehicleCount":18,"avgSpeed":39},{"_id":193,"REPORT_ID":179256,"TIMESTAMP":"2019-12-12T09:24:00","status":"OK","avgMeasuredTime":46,"medianMeasuredTime":46,"vehicleCount":16,"avgSpeed":47},{"_id":356,"REPORT_ID":187430,"TIMESTAMP":"2019-12-12T09:24:00","status":"OK","avgMeasuredTime":116,"medianMeasuredTime":116,"vehicleCount":10,"avgSpeed":27},{"_id":18,"REPORT_ID":197302,"TIMESTAMP":"2019-12-12T09:20:00","status":"OK","avgMeasuredTime":55,"medianMeasuredTime":55,"vehicleCount":3,"avgSpeed":51},{"_id":338,"REPORT_ID":185290,"TIMESTAMP":"2019-12-12T09:20:00","status":"OK","avgMeasuredTime":68,"medianMeasuredTime":68,"vehicleCount":0,"avgSpeed":33},{"_id":142,"REPORT_ID":209827,"TIMESTAMP":"2019-12-12T09:25:00","status":"OK","avgMeasuredTime":68,"medianMeasuredTime":68,"vehicleCount":4,"avgSpeed":43},{"_id":332,"REPORT_ID":187244,"TIMESTAMP":"2019-12-12T09:25:00","status":"OK","avgMeasuredTime":144,"medianMeasuredTime":144,"vehicleCount":1,"avgSpeed":15},{"_id":450,"REPORT_ID":195233,"TIMESTAMP":"2019-12-12T09:20:00","status":"OK","avgMeasuredTime":99,"medianMeasuredTime":99,"vehicleCount":2,"avgSpeed":53},{"_id":369,"REPORT_ID":190447,"TIMESTAMP":"2019-12-12T09:20:00","status":"OK","avgMeasuredTime":116,"medianMeasuredTime":116,"vehicleCount":14,"avgSpeed":70},{"_id":71,"REPORT_ID":197679,"TIMESTAMP":"2019-12-12T09:20:00","status":"OK","avgMeasuredTime":101,"medianMeasuredTime":101,"vehicleCount":17,"avgSpeed":42},{"_id":74,"REPORT_ID":197868,"TIMESTAMP":"2019-12-12T09:20:00","status":"OK","avgMeasuredTime":75,"medianMeasuredTime":75,"vehicleCount":14,"avgSpeed":60},{"_id":162,"REPORT_ID":195259,"TIMESTAMP":"2019-12-12T09:20:00","status":"OK","avgMeasuredTime":104,"medianMeasuredTime":104,"vehicleCount":1,"avgSpeed":51},{"_id":428,"REPORT_ID":182929,"TIMESTAMP":"2019-12-12T09:20:00","status":"OK","avgMeasuredTime":41,"medianMeasuredTime":41,"vehicleCount":9,"avgSpeed":48},{"_id":430,"REPORT_ID":172156,"TIMESTAMP":"2019-12-12T09:20:00","status":"OK","avgMeasuredTime":169,"medianMeasuredTime":169,"vehicleCount":0,"avgSpeed":56},{"_id":98,"REPORT_ID":179119,"TIMESTAMP":"2019-12-12T09:20:00","status":"OK","avgMeasuredTime":44,"medianMeasuredTime":44,"vehicleCount":3,"avgSpeed":47},{"_id":346,"REPORT_ID":172329,"TIMESTAMP":"2019-12-12T09:20:00","status":"OK","avgMeasuredTime":139,"medianMeasuredTime":139,"vehicleCount":3,"avgSpeed":81},{"_id":106,"REPORT_ID":192840,"TIMESTAMP":"2019-12-12T09:25:00","status":"OK","avgMeasuredTime":72,"medianMeasuredTime":72,"vehicleCount":0,"avgSpeed":56},{"_id":277,"REPORT_ID":184972,"TIMESTAMP":"2019-12-12T09:25:00","status":"OK","avgMeasuredTime":72,"medianMeasuredTime":72,"vehicleCount":1,"avgSpeed":23},{"_id":131,"REPORT_ID":181006,"TIMESTAMP":"2019-12-12T09:24:00","status":"OK","avgMeasuredTime":38,"medianMeasuredTime":38,"vehicleCount":10,"avgSpeed":56},{"_id":64,"REPORT_ID":182657,"TIMESTAMP":"2019-12-12T09:24:00","status":"OK","avgMeasuredTime":103,"medianMeasuredTime":103,"vehicleCount":15,"avgSpeed":29},{"_id":354,"REPORT_ID":201934,"TIMESTAMP":"2019-12-12T09:20:00","status":"OK","avgMeasuredTime":134,"medianMeasuredTime":134,"vehicleCount":11,"avgSpeed":32},{"_id":203,"REPORT_ID":201265,"TIMESTAMP":"2019-12-12T09:20:00","status":"OK","avgMeasuredTime":82,"medianMeasuredTime":82,"vehicleCount":3,"avgSpeed":39},{"_id":227,"REPORT_ID":187933,"TIMESTAMP":"2019-12-12T09:20:00","status":"OK","avgMeasuredTime":105,"medianMeasuredTime":105,"vehicleCount":3,"avgSpeed":23},{"_id":208,"REPORT_ID":204219,"TIMESTAMP":"2019-12-12T09:20:00","status":"OK","avgMeasuredTime":70,"medianMeasuredTime":70,"vehicleCount":8,"avgSpeed":50},{"_id":112,"REPORT_ID":190663,"TIMESTAMP":"2019-12-12T09:25:00","status":"OK","avgMeasuredTime":34,"medianMeasuredTime":34,"vehicleCount":10,"avgSpeed":62},{"_id":303,"REPORT_ID":187138,"TIMESTAMP":"2019-12-12T09:20:00","status":"OK","avgMeasuredTime":79,"medianMeasuredTime":79,"vehicleCount":6,"avgSpeed":44},{"_id":273,"REPORT_ID":201291,"TIMESTAMP":"2019-12-12T09:24:00","status":"OK","avgMeasuredTime":94,"medianMeasuredTime":94,"vehicleCount":11,"avgSpeed":34},{"_id":396,"REPORT_ID":198193,"TIMESTAMP":"2019-12-12T09:25:00","status":"OK","avgMeasuredTime":75,"medianMeasuredTime":75,"vehicleCount":3,"avgSpeed":46},{"_id":382,"REPORT_ID":187006,"TIMESTAMP":"2019-12-12T09:20:00","status":"OK","avgMeasuredTime":117,"medianMeasuredTime":117,"vehicleCount":1,"avgSpeed":31},{"_id":159,"REPORT_ID":190799,"TIMESTAMP":"2019-12-12T09:20:00","status":"OK","avgMeasuredTime":142,"medianMeasuredTime":142,"vehicleCount":1,"avgSpeed":63},{"_id":390,"REPORT_ID":203742,"TIMESTAMP":"2019-12-12T09:20:00","status":"OK","avgMeasuredTime":1193,"medianMeasuredTime":1193,"vehicleCount":0,"avgSpeed":3},{"_id":437,"REPORT_ID":184758,"TIMESTAMP":"2019-12-12T09:20:00","status":"OK","avgMeasuredTime":89,"medianMeasuredTime":89,"vehicleCount":7,"avgSpeed":49},{"_id":357,"REPORT_ID":185131,"TIMESTAMP":"2019-12-12T09:20:00","status":"OK","avgMeasuredTime":98,"medianMeasuredTime":98,"vehicleCount":4,"avgSpeed":19},{"_id":161,"REPORT_ID":172602,"TIMESTAMP":"2019-12-12T09:20:00","status":"OK","avgMeasuredTime":0,"medianMeasuredTime":0,"vehicleCount":0,"avgSpeed":0},{"_id":79,"REPORT_ID":187880,"TIMESTAMP":"2019-12-12T09:20:00","status":"OK","avgMeasuredTime":109,"medianMeasuredTime":109,"vehicleCount":6,"avgSpeed":28},{"_id":287,"REPORT_ID":195418,"TIMESTAMP":"2019-12-12T09:20:00","status":"OK","avgMeasuredTime":67,"medianMeasuredTime":67,"vehicleCount":1,"avgSpeed":47},{"_id":400,"REPORT_ID":206184,"TIMESTAMP":"2019-12-12T09:20:00","status":"OK","avgMeasuredTime":183,"medianMeasuredTime":183,"vehicleCount":0,"avgSpeed":14},{"_id":135,"REPORT_ID":201373,"TIMESTAMP":"2019-12-12T09:20:00","status":"OK","avgMeasuredTime":131,"medianMeasuredTime":131,"vehicleCount":2,"avgSpeed":46},{"_id":388,"REPORT_ID":184621,"TIMESTAMP":"2019-12-12T09:20:00","status":"OK","avgMeasuredTime":135,"medianMeasuredTime":135,"vehicleCount":8,"avgSpeed":20},{"_id":283,"REPORT_ID":184892,"TIMESTAMP":"2019-12-12T09:20:00","status":"OK","avgMeasuredTime":0,"medianMeasuredTime":0,"vehicleCount":0,"avgSpeed":0},{"_id":292,"REPORT_ID":201696,"TIMESTAMP":"2019-12-12T09:20:00","status":"OK","avgMeasuredTime":160,"medianMeasuredTime":160,"vehicleCount":5,"avgSpeed":66},{"_id":350,"REPORT_ID":197328,"TIMESTAMP":"2019-12-12T09:20:00","status":"OK","avgMeasuredTime":78,"medianMeasuredTime":78,"vehicleCount":0,"avgSpeed":46},{"_id":374,"REPORT_ID":179093,"TIMESTAMP":"2019-12-12T09:20:00","status":"OK","avgMeasuredTime":48,"medianMeasuredTime":48,"vehicleCount":1,"avgSpeed":43},{"_id":311,"REPORT_ID":195041,"TIMESTAMP":"2019-12-12T09:20:00","status":"OK","avgMeasuredTime":66,"medianMeasuredTime":66,"vehicleCount":4,"avgSpeed":55},{"_id":108,"REPORT_ID":195446,"TIMESTAMP":"2019-12-12T09:20:00","status":"OK","avgMeasuredTime":95,"medianMeasuredTime":95,"vehicleCount":0,"avgSpeed":36},{"_id":342,"REPORT_ID":184998,"TIMESTAMP":"2019-12-12T09:20:00","status":"OK","avgMeasuredTime":126,"medianMeasuredTime":126,"vehicleCount":3,"avgSpeed":14},{"_id":11,"REPORT_ID":195631,"TIMESTAMP":"2019-12-12T09:20:00","status":"OK","avgMeasuredTime":130,"medianMeasuredTime":130,"vehicleCount":4,"avgSpeed":16},{"_id":383,"REPORT_ID":192492,"TIMESTAMP":"2019-12-12T09:20:00","status":"OK","avgMeasuredTime":159,"medianMeasuredTime":159,"vehicleCount":9,"avgSpeed":51},{"_id":448,"REPORT_ID":190555,"TIMESTAMP":"2019-12-12T09:20:00","status":"OK","avgMeasuredTime":39,"medianMeasuredTime":39,"vehicleCount":14,"avgSpeed":48},{"_id":172,"REPORT_ID":195817,"TIMESTAMP":"2019-12-12T09:20:00","status":"OK","avgMeasuredTime":54,"medianMeasuredTime":54,"vehicleCount":1,"avgSpeed":53},{"_id":233,"REPORT_ID":197544,"TIMESTAMP":"2019-12-12T09:20:00","status":"OK","avgMeasuredTime":229,"medianMeasuredTime":229,"vehicleCount":3,"avgSpeed":52},{"_id":113,"REPORT_ID":182820,"TIMESTAMP":"2019-12-12T09:20:00","status":"OK","avgMeasuredTime":65,"medianMeasuredTime":65,"vehicleCount":9,"avgSpeed":36},{"_id":384,"REPORT_ID":205997,"TIMESTAMP":"2019-12-12T09:20:00","status":"OK","avgMeasuredTime":46,"medianMeasuredTime":46,"vehicleCount":0,"avgSpeed":44},{"_id":127,"REPORT_ID":187032,"TIMESTAMP":"2019-12-12T09:20:00","status":"OK","avgMeasuredTime":116,"medianMeasuredTime":116,"vehicleCount":2,"avgSpeed":32},{"_id":398,"REPORT_ID":201722,"TIMESTAMP":"2019-12-12T09:20:00","status":"OK","avgMeasuredTime":165,"medianMeasuredTime":165,"vehicleCount":11,"avgSpeed":63},{"_id":120,"REPORT_ID":204166,"TIMESTAMP":"2019-12-12T09:20:00","status":"OK","avgMeasuredTime":63,"medianMeasuredTime":63,"vehicleCount":0,"avgSpeed":50},{"_id":284,"REPORT_ID":203822,"TIMESTAMP":"2019-12-12T09:20:00","status":"OK","avgMeasuredTime":109,"medianMeasuredTime":109,"vehicleCount":0,"avgSpeed":41},{"_id":199,"REPORT_ID":180573,"TIMESTAMP":"2019-12-12T09:24:00","status":"OK","avgMeasuredTime":63,"medianMeasuredTime":63,"vehicleCount":17,"avgSpeed":57},{"_id":94,"REPORT_ID":209721,"TIMESTAMP":"2019-12-12T09:20:00","status":"OK","avgMeasuredTime":356,"medianMeasuredTime":356,"vehicleCount":0,"avgSpeed":13},{"_id":404,"REPORT_ID":158565,"TIMESTAMP":"2019-12-12T09:20:00","status":"OK","avgMeasuredTime":115,"medianMeasuredTime":115,"vehicleCount":10,"avgSpeed":94},{"_id":377,"REPORT_ID":193268,"TIMESTAMP":"2019-12-12T09:20:00","status":"OK","avgMeasuredTime":89,"medianMeasuredTime":89,"vehicleCount":13,"avgSpeed":53},{"_id":33,"REPORT_ID":158776,"TIMESTAMP":"2019-12-12T09:20:00","status":"OK","avgMeasuredTime":70,"medianMeasuredTime":70,"vehicleCount":6,"avgSpeed":47},{"_id":88,"REPORT_ID":193079,"TIMESTAMP":"2019-12-12T09:20:00","status":"OK","avgMeasuredTime":0,"medianMeasuredTime":0,"vehicleCount":0,"avgSpeed":0},{"_id":107,"REPORT_ID":178983,"TIMESTAMP":"2019-12-12T09:20:00","status":"OK","avgMeasuredTime":32,"medianMeasuredTime":32,"vehicleCount":9,"avgSpeed":52},{"_id":39,"REPORT_ID":187668,"TIMESTAMP":"2019-12-12T09:20:00","status":"OK","avgMeasuredTime":103,"medianMeasuredTime":103,"vehicleCount":1,"avgSpeed":23},{"_id":189,"REPORT_ID":198247,"TIMESTAMP":"2019-12-12T09:20:00","status":"OK","avgMeasuredTime":65,"medianMeasuredTime":65,"vehicleCount":7,"avgSpeed":43},{"_id":376,"REPORT_ID":192681,"TIMESTAMP":"2019-12-12T09:20:00","status":"OK","avgMeasuredTime":68,"medianMeasuredTime":68,"vehicleCount":1,"avgSpeed":42},{"_id":57,"REPORT_ID":182955,"TIMESTAMP":"2019-12-12T09:20:00","status":"OK","avgMeasuredTime":32,"medianMeasuredTime":32,"vehicleCount":13,"avgSpeed":61},{"_id":152,"REPORT_ID":201908,"TIMESTAMP":"2019-12-12T09:20:00","status":"OK","avgMeasuredTime":122,"medianMeasuredTime":122,"vehicleCount":5,"avgSpeed":35},{"_id":228,"REPORT_ID":209774,"TIMESTAMP":"2019-12-12T09:20:00","status":"OK","avgMeasuredTime":166,"medianMeasuredTime":166,"vehicleCount":0,"avgSpeed":23},{"_id":432,"REPORT_ID":190583,"TIMESTAMP":"2019-12-12T09:20:00","status":"OK","avgMeasuredTime":34,"medianMeasuredTime":34,"vehicleCount":22,"avgSpeed":64},{"_id":348,"REPORT_ID":204193,"TIMESTAMP":"2019-12-12T09:20:00","status":"OK","avgMeasuredTime":68,"medianMeasuredTime":68,"vehicleCount":7,"avgSpeed":51},{"_id":138,"REPORT_ID":197572,"TIMESTAMP":"2019-12-12T09:20:00","status":"OK","avgMeasuredTime":55,"medianMeasuredTime":55,"vehicleCount":10,"avgSpeed":36},{"_id":239,"REPORT_ID":195870,"TIMESTAMP":"2019-12-12T09:20:00","status":"OK","avgMeasuredTime":108,"medianMeasuredTime":108,"vehicleCount":1,"avgSpeed":41},{"_id":129,"REPORT_ID":179148,"TIMESTAMP":"2019-12-12T09:20:00","status":"OK","avgMeasuredTime":53,"medianMeasuredTime":53,"vehicleCount":10,"avgSpeed":54},{"_id":177,"REPORT_ID":187801,"TIMESTAMP":"2019-12-12T09:20:00","status":"OK","avgMeasuredTime":48,"medianMeasuredTime":48,"vehicleCount":0,"avgSpeed":49},{"_id":299,"REPORT_ID":195286,"TIMESTAMP":"2019-12-12T09:20:00","status":"OK","avgMeasuredTime":126,"medianMeasuredTime":126,"vehicleCount":6,"avgSpeed":42},{"_id":200,"REPORT_ID":210199,"TIMESTAMP":"2019-12-12T09:25:00","status":"OK","avgMeasuredTime":377,"medianMeasuredTime":377,"vehicleCount":0,"avgSpeed":10},{"_id":275,"REPORT_ID":197788,"TIMESTAMP":"2019-12-12T09:25:00","status":"OK","avgMeasuredTime":131,"medianMeasuredTime":131,"vehicleCount":6,"avgSpeed":36}], "_links": {"start": "/api/3/action/datastore_search?resource_id=b3eeb0ff-c8a8-4824-99d6-e0a3747c8b0d", "next": "/api/3/action/datastore_search?offset=100&resource_id=b3eeb0ff-c8a8-4824-99d6-e0a3747c8b0d"}, "total": 449}}