{"help": "https://admin.opendata.dk/api/3/action/help_show?name=datastore_search", "success": true, "result": {"include_total": true, "resource_id": "c65b055d-a020-4871-ab51-bdbc3fd73fd8", "fields": [{"type": "int", "id": "_id"}, {"type": "text", "id": "sensor"}, {"type": "text", "id": "type"}, {"type": "int2", "id": "sensor_id"}, {"type": "timestamp", "id": "time"}, {"type": "float8", "id": "value"}], "records_format": "objects", "records": [{"_id":1,"sensor":"0004A30B001E307C","type":"battery","sensor_id":52,"time":"2018-01-12T09:35:57","value":98},{"_id":2,"sensor":"0004A30B001E307C","type":"charging_power","sensor_id":186,"time":"2018-01-12T09:35:57","value":0},{"_id":3,"sensor":"0004A30B001E307C","type":"air_temperature","sensor_id":74,"time":"2018-01-12T09:35:57","value":1.9099999666214},{"_id":4,"sensor":"0004A30B001E307C","type":"humidity","sensor_id":76,"time":"2018-01-12T09:35:57","value":95.1015625},{"_id":5,"sensor":"0004A30B001E307C","type":"pressure","sensor_id":77,"time":"2018-01-12T09:35:57","value":103312.0234375},{"_id":6,"sensor":"0004A30B001E307C","type":"distance_to_water","sensor_id":79,"time":"2018-01-12T09:35:57","value":207},{"_id":7,"sensor":"0004A30B001E8EA2","type":"battery","sensor_id":52,"time":"2018-01-12T09:36:29","value":96},{"_id":8,"sensor":"0004A30B001E8EA2","type":"charging_power","sensor_id":186,"time":"2018-01-12T09:36:29","value":0},{"_id":9,"sensor":"0004A30B001E8EA2","type":"air_temperature","sensor_id":74,"time":"2018-01-12T09:36:29","value":2.58999991416931},{"_id":10,"sensor":"0004A30B001E8EA2","type":"humidity","sensor_id":76,"time":"2018-01-12T09:36:29","value":98.7587890625},{"_id":11,"sensor":"0004A30B001E8EA2","type":"pressure","sensor_id":77,"time":"2018-01-12T09:36:29","value":103366.375},{"_id":12,"sensor":"0004A30B001E8EA2","type":"lux","sensor_id":78,"time":"2018-01-12T09:36:29","value":1102},{"_id":13,"sensor":"0004A30B001E8EA2","type":"solar_radiation","sensor_id":161,"time":"2018-01-12T09:36:29","value":-0.68665599822998},{"_id":14,"sensor":"0004A30B001E8EA2","type":"wind_speed","sensor_id":156,"time":"2018-01-12T09:36:29","value":20.8000011444092},{"_id":15,"sensor":"0004A30B001E8EA2","type":"wind_vane","sensor_id":157,"time":"2018-01-12T09:36:29","value":8},{"_id":16,"sensor":"0004A30B001E8EA2","type":"rain","sensor_id":159,"time":"2018-01-12T09:36:29","value":0},{"_id":17,"sensor":"0004A30B001E1694","type":"battery","sensor_id":52,"time":"2018-01-12T09:41:57","value":91},{"_id":18,"sensor":"0004A30B001E1694","type":"charging_power","sensor_id":186,"time":"2018-01-12T09:41:57","value":0},{"_id":19,"sensor":"0004A30B001E1694","type":"water_temperature","sensor_id":134,"time":"2018-01-12T09:41:57","value":2.605712890625},{"_id":20,"sensor":"0004A30B001E307C","type":"battery","sensor_id":52,"time":"2018-01-12T09:46:11","value":98},{"_id":21,"sensor":"0004A30B001E307C","type":"charging_power","sensor_id":186,"time":"2018-01-12T09:46:11","value":0},{"_id":22,"sensor":"0004A30B001E307C","type":"air_temperature","sensor_id":74,"time":"2018-01-12T09:46:11","value":1.92999994754791},{"_id":23,"sensor":"0004A30B001E307C","type":"humidity","sensor_id":76,"time":"2018-01-12T09:46:11","value":94.2802734375},{"_id":24,"sensor":"0004A30B001E307C","type":"pressure","sensor_id":77,"time":"2018-01-12T09:46:11","value":103319.71875},{"_id":25,"sensor":"0004A30B001E307C","type":"distance_to_water","sensor_id":79,"time":"2018-01-12T09:46:11","value":211},{"_id":26,"sensor":"0004A30B001E8EA2","type":"battery","sensor_id":52,"time":"2018-01-12T09:46:44","value":96},{"_id":27,"sensor":"0004A30B001E8EA2","type":"charging_power","sensor_id":186,"time":"2018-01-12T09:46:44","value":0},{"_id":28,"sensor":"0004A30B001E8EA2","type":"air_temperature","sensor_id":74,"time":"2018-01-12T09:46:44","value":2.61999988555908},{"_id":29,"sensor":"0004A30B001E8EA2","type":"humidity","sensor_id":76,"time":"2018-01-12T09:46:44","value":99.0205078125},{"_id":30,"sensor":"0004A30B001E8EA2","type":"pressure","sensor_id":77,"time":"2018-01-12T09:46:44","value":103377.625},{"_id":31,"sensor":"0004A30B001E8EA2","type":"lux","sensor_id":78,"time":"2018-01-12T09:46:44","value":1123},{"_id":32,"sensor":"0004A30B001E8EA2","type":"solar_radiation","sensor_id":161,"time":"2018-01-12T09:46:44","value":-0.68665599822998},{"_id":33,"sensor":"0004A30B001E8EA2","type":"wind_speed","sensor_id":156,"time":"2018-01-12T09:46:44","value":11.2000007629395},{"_id":34,"sensor":"0004A30B001E8EA2","type":"wind_vane","sensor_id":157,"time":"2018-01-12T09:46:44","value":10},{"_id":35,"sensor":"0004A30B001E8EA2","type":"rain","sensor_id":159,"time":"2018-01-12T09:46:44","value":0},{"_id":36,"sensor":"0004A30B001E1694","type":"battery","sensor_id":52,"time":"2018-01-12T09:52:07","value":91},{"_id":37,"sensor":"0004A30B001E1694","type":"charging_power","sensor_id":186,"time":"2018-01-12T09:52:07","value":0},{"_id":38,"sensor":"0004A30B001E1694","type":"water_temperature","sensor_id":134,"time":"2018-01-12T09:52:07","value":2.59884643554688},{"_id":39,"sensor":"0004A30B001E307C","type":"battery","sensor_id":52,"time":"2018-01-12T09:56:25","value":98},{"_id":40,"sensor":"0004A30B001E307C","type":"charging_power","sensor_id":186,"time":"2018-01-12T09:56:25","value":0},{"_id":41,"sensor":"0004A30B001E307C","type":"air_temperature","sensor_id":74,"time":"2018-01-12T09:56:25","value":1.94000005722046},{"_id":42,"sensor":"0004A30B001E307C","type":"humidity","sensor_id":76,"time":"2018-01-12T09:56:25","value":93.6396484375},{"_id":43,"sensor":"0004A30B001E307C","type":"pressure","sensor_id":77,"time":"2018-01-12T09:56:25","value":103350.3203125},{"_id":44,"sensor":"0004A30B001E307C","type":"distance_to_water","sensor_id":79,"time":"2018-01-12T09:56:25","value":213},{"_id":45,"sensor":"0004A30B001E8EA2","type":"battery","sensor_id":52,"time":"2018-01-12T09:56:59","value":96},{"_id":46,"sensor":"0004A30B001E8EA2","type":"charging_power","sensor_id":186,"time":"2018-01-12T09:56:59","value":0},{"_id":47,"sensor":"0004A30B001E8EA2","type":"air_temperature","sensor_id":74,"time":"2018-01-12T09:56:59","value":2.63000011444092},{"_id":48,"sensor":"0004A30B001E8EA2","type":"humidity","sensor_id":76,"time":"2018-01-12T09:56:59","value":98.40234375},{"_id":49,"sensor":"0004A30B001E8EA2","type":"pressure","sensor_id":77,"time":"2018-01-12T09:56:59","value":103381.90625},{"_id":50,"sensor":"0004A30B001E8EA2","type":"lux","sensor_id":78,"time":"2018-01-12T09:56:59","value":1133},{"_id":51,"sensor":"0004A30B001E8EA2","type":"solar_radiation","sensor_id":161,"time":"2018-01-12T09:56:59","value":-0.68665599822998},{"_id":52,"sensor":"0004A30B001E8EA2","type":"wind_speed","sensor_id":156,"time":"2018-01-12T09:56:59","value":20.8000011444092},{"_id":53,"sensor":"0004A30B001E8EA2","type":"wind_vane","sensor_id":157,"time":"2018-01-12T09:56:59","value":8},{"_id":54,"sensor":"0004A30B001E8EA2","type":"rain","sensor_id":159,"time":"2018-01-12T09:56:59","value":0},{"_id":55,"sensor":"0004A30B001E1694","type":"battery","sensor_id":52,"time":"2018-01-12T10:02:17","value":91},{"_id":56,"sensor":"0004A30B001E1694","type":"charging_power","sensor_id":186,"time":"2018-01-12T10:02:17","value":0},{"_id":57,"sensor":"0004A30B001E1694","type":"water_temperature","sensor_id":134,"time":"2018-01-12T10:02:17","value":2.20181274414062},{"_id":58,"sensor":"0004A30B001E307C","type":"battery","sensor_id":52,"time":"2018-01-12T10:06:39","value":98},{"_id":59,"sensor":"0004A30B001E307C","type":"charging_power","sensor_id":186,"time":"2018-01-12T10:06:39","value":0},{"_id":60,"sensor":"0004A30B001E307C","type":"air_temperature","sensor_id":74,"time":"2018-01-12T10:06:39","value":1.89999997615814},{"_id":61,"sensor":"0004A30B001E307C","type":"humidity","sensor_id":76,"time":"2018-01-12T10:06:39","value":93.490234375},{"_id":62,"sensor":"0004A30B001E307C","type":"pressure","sensor_id":77,"time":"2018-01-12T10:06:39","value":103354.5234375},{"_id":63,"sensor":"0004A30B001E307C","type":"distance_to_water","sensor_id":79,"time":"2018-01-12T10:06:39","value":214},{"_id":64,"sensor":"0004A30B001E8EA2","type":"battery","sensor_id":52,"time":"2018-01-12T10:07:14","value":96},{"_id":65,"sensor":"0004A30B001E8EA2","type":"charging_power","sensor_id":186,"time":"2018-01-12T10:07:14","value":0},{"_id":66,"sensor":"0004A30B001E8EA2","type":"air_temperature","sensor_id":74,"time":"2018-01-12T10:07:14","value":2.5699999332428},{"_id":67,"sensor":"0004A30B001E8EA2","type":"humidity","sensor_id":76,"time":"2018-01-12T10:07:14","value":97.9462890625},{"_id":68,"sensor":"0004A30B001E8EA2","type":"pressure","sensor_id":77,"time":"2018-01-12T10:07:14","value":103406.1796875},{"_id":69,"sensor":"0004A30B001E8EA2","type":"lux","sensor_id":78,"time":"2018-01-12T10:07:14","value":1401},{"_id":70,"sensor":"0004A30B001E8EA2","type":"solar_radiation","sensor_id":161,"time":"2018-01-12T10:07:14","value":-0.68665599822998},{"_id":71,"sensor":"0004A30B001E8EA2","type":"wind_speed","sensor_id":156,"time":"2018-01-12T10:07:14","value":19.2000007629395},{"_id":72,"sensor":"0004A30B001E8EA2","type":"wind_vane","sensor_id":157,"time":"2018-01-12T10:07:14","value":8},{"_id":73,"sensor":"0004A30B001E8EA2","type":"rain","sensor_id":159,"time":"2018-01-12T10:07:14","value":0},{"_id":74,"sensor":"0004A30B001E1694","type":"battery","sensor_id":52,"time":"2018-01-12T10:12:27","value":91},{"_id":75,"sensor":"0004A30B001E1694","type":"charging_power","sensor_id":186,"time":"2018-01-12T10:12:27","value":0},{"_id":76,"sensor":"0004A30B001E1694","type":"water_temperature","sensor_id":134,"time":"2018-01-12T10:12:27","value":1.82904052734375},{"_id":77,"sensor":"0004A30B001E307C","type":"battery","sensor_id":52,"time":"2018-01-12T10:16:53","value":98},{"_id":78,"sensor":"0004A30B001E307C","type":"charging_power","sensor_id":186,"time":"2018-01-12T10:16:53","value":0},{"_id":79,"sensor":"0004A30B001E307C","type":"air_temperature","sensor_id":74,"time":"2018-01-12T10:16:53","value":1.86000001430511},{"_id":80,"sensor":"0004A30B001E307C","type":"humidity","sensor_id":76,"time":"2018-01-12T10:16:53","value":91.2841796875},{"_id":81,"sensor":"0004A30B001E307C","type":"pressure","sensor_id":77,"time":"2018-01-12T10:16:53","value":103373.21875},{"_id":82,"sensor":"0004A30B001E307C","type":"distance_to_water","sensor_id":79,"time":"2018-01-12T10:16:53","value":219},{"_id":83,"sensor":"0004A30B001E8EA2","type":"battery","sensor_id":52,"time":"2018-01-12T10:17:29","value":96},{"_id":84,"sensor":"0004A30B001E8EA2","type":"charging_power","sensor_id":186,"time":"2018-01-12T10:17:29","value":34},{"_id":85,"sensor":"0004A30B001E8EA2","type":"air_temperature","sensor_id":74,"time":"2018-01-12T10:17:29","value":2.53999996185303},{"_id":86,"sensor":"0004A30B001E8EA2","type":"humidity","sensor_id":76,"time":"2018-01-12T10:17:29","value":95.0869140625},{"_id":87,"sensor":"0004A30B001E8EA2","type":"pressure","sensor_id":77,"time":"2018-01-12T10:17:29","value":103399.546875},{"_id":88,"sensor":"0004A30B001E8EA2","type":"lux","sensor_id":78,"time":"2018-01-12T10:17:29","value":1580},{"_id":89,"sensor":"0004A30B001E8EA2","type":"solar_radiation","sensor_id":161,"time":"2018-01-12T10:17:29","value":-0.68665599822998},{"_id":90,"sensor":"0004A30B001E8EA2","type":"wind_speed","sensor_id":156,"time":"2018-01-12T10:17:29","value":24.8000011444092},{"_id":91,"sensor":"0004A30B001E8EA2","type":"wind_vane","sensor_id":157,"time":"2018-01-12T10:17:29","value":8},{"_id":92,"sensor":"0004A30B001E8EA2","type":"rain","sensor_id":159,"time":"2018-01-12T10:17:29","value":0},{"_id":93,"sensor":"0004A30B001E1694","type":"battery","sensor_id":52,"time":"2018-01-12T10:22:37","value":92},{"_id":94,"sensor":"0004A30B001E1694","type":"charging_power","sensor_id":186,"time":"2018-01-12T10:22:37","value":0},{"_id":95,"sensor":"0004A30B001E1694","type":"water_temperature","sensor_id":134,"time":"2018-01-12T10:22:37","value":1.74545288085938},{"_id":96,"sensor":"0004A30B001E307C","type":"battery","sensor_id":52,"time":"2018-01-12T10:27:07","value":98},{"_id":97,"sensor":"0004A30B001E307C","type":"charging_power","sensor_id":186,"time":"2018-01-12T10:27:07","value":0},{"_id":98,"sensor":"0004A30B001E307C","type":"air_temperature","sensor_id":74,"time":"2018-01-12T10:27:07","value":1.83000004291534},{"_id":99,"sensor":"0004A30B001E307C","type":"humidity","sensor_id":76,"time":"2018-01-12T10:27:07","value":92.2353515625},{"_id":100,"sensor":"0004A30B001E307C","type":"pressure","sensor_id":77,"time":"2018-01-12T10:27:07","value":103376.609375}], "_links": {"start": "/api/3/action/datastore_search?resource_id=c65b055d-a020-4871-ab51-bdbc3fd73fd8", "next": "/api/3/action/datastore_search?offset=100&resource_id=c65b055d-a020-4871-ab51-bdbc3fd73fd8"}, "total": 1653136}}